{
  "project_info": {
    "project_number": "797035003605",
    "project_id": "reto2-19372",
    "storage_bucket": "reto2-19372.appspot.com"
  },
  "client": [
    {
      "client_info": {
        "mobilesdk_app_id": "1:797035003605:android:81eb6206adfca69e9b2c5c",
        "android_client_info": {
          "package_name": "co.com.fluttergram.app"
        }
      },
      "oauth_client": [
        {
          "client_id": "797035003605-etqg1cqlbh6thhqgildukfolet2c5i16.apps.googleusercontent.com",
          "client_type": 3
        }
      ],
      "api_key": [
        {
          "current_key": "AIzaSyDkzi7Ov6C53Z6HuxazgWu9MjFkz7MivkI"
        }
      ],
      "services": {
        "appinvite_service": {
          "other_platform_oauth_client": [
            {
              "client_id": "797035003605-etqg1cqlbh6thhqgildukfolet2c5i16.apps.googleusercontent.com",
              "client_type": 3
            }
          ]
        }
      }
    }
  ],
  "configuration_version": "1"
}